<?xml version="1.0" encoding="utf-8"?>
<!-- Generator: Adobe Illustrator 15.0.0, SVG Export Plug-In . SVG Version: 6.00 Build 0)  -->
<!DOCTYPE svg PUBLIC "-//W3C//DTD SVG 1.1//EN" "http://www.w3.org/Graphics/SVG/1.1/DTD/svg11.dtd" [
	<!ENTITY ns_extend "http://ns.adobe.com/Extensibility/1.0/">
	<!ENTITY ns_ai "http://ns.adobe.com/AdobeIllustrator/10.0/">
	<!ENTITY ns_graphs "http://ns.adobe.com/Graphs/1.0/">
	<!ENTITY ns_vars "http://ns.adobe.com/Variables/1.0/">
	<!ENTITY ns_imrep "http://ns.adobe.com/ImageReplacement/1.0/">
	<!ENTITY ns_sfw "http://ns.adobe.com/SaveForWeb/1.0/">
	<!ENTITY ns_custom "http://ns.adobe.com/GenericCustomNamespace/1.0/">
	<!ENTITY ns_adobe_xpath "http://ns.adobe.com/XPath/1.0/">
]>
<svg version="1.1" id="Layer_1" xmlns:x="&ns_extend;" xmlns:i="&ns_ai;" xmlns:graph="&ns_graphs;"
	 xmlns="http://www.w3.org/2000/svg" xmlns:xlink="http://www.w3.org/1999/xlink" x="0px" y="0px" width="29.693px"
	 height="29.693px" viewBox="0 0 29.693 29.693" enable-background="new 0 0 29.693 29.693" xml:space="preserve">
<metadata><?xpacket begin="﻿" id="W5M0MpCehiHzreSzNTczkc9d"?>
<x:xmpmeta xmlns:x="adobe:ns:meta/" x:xmptk="Adobe XMP Core 5.0-c060 61.134777, 2010/02/12-17:32:00        ">
   <rdf:RDF xmlns:rdf="http://www.w3.org/1999/02/22-rdf-syntax-ns#">
      <rdf:Description rdf:about=""
            xmlns:dc="http://purl.org/dc/elements/1.1/">
         <dc:format>image/svg+xml</dc:format>
         <dc:title>
            <rdf:Alt>
               <rdf:li xml:lang="x-default">Web</rdf:li>
            </rdf:Alt>
         </dc:title>
      </rdf:Description>
      <rdf:Description rdf:about=""
            xmlns:xmp="http://ns.adobe.com/xap/1.0/"
            xmlns:xmpGImg="http://ns.adobe.com/xap/1.0/g/img/">
         <xmp:CreatorTool>Adobe Illustrator CS5</xmp:CreatorTool>
         <xmp:CreateDate>2016-04-22T15:34:39+05:30</xmp:CreateDate>
         <xmp:ModifyDate>2016-04-22T15:34:40+05:30</xmp:ModifyDate>
         <xmp:MetadataDate>2016-04-22T15:34:40+05:30</xmp:MetadataDate>
         <xmp:Thumbnails>
            <rdf:Alt>
               <rdf:li rdf:parseType="Resource">
                  <xmpGImg:width>256</xmpGImg:width>
                  <xmpGImg:height>200</xmpGImg:height>
                  <xmpGImg:format>JPEG</xmpGImg:format>
                  <xmpGImg:image>/9j/4AAQSkZJRgABAgEASABIAAD/7QAsUGhvdG9zaG9wIDMuMAA4QklNA+0AAAAAABAASAAAAAEA&#xA;AQBIAAAAAQAB/+4ADkFkb2JlAGTAAAAAAf/bAIQABgQEBAUEBgUFBgkGBQYJCwgGBggLDAoKCwoK&#xA;DBAMDAwMDAwQDA4PEA8ODBMTFBQTExwbGxscHx8fHx8fHx8fHwEHBwcNDA0YEBAYGhURFRofHx8f&#xA;Hx8fHx8fHx8fHx8fHx8fHx8fHx8fHx8fHx8fHx8fHx8fHx8fHx8fHx8fHx8f/8AAEQgAyAEAAwER&#xA;AAIRAQMRAf/EAaIAAAAHAQEBAQEAAAAAAAAAAAQFAwIGAQAHCAkKCwEAAgIDAQEBAQEAAAAAAAAA&#xA;AQACAwQFBgcICQoLEAACAQMDAgQCBgcDBAIGAnMBAgMRBAAFIRIxQVEGE2EicYEUMpGhBxWxQiPB&#xA;UtHhMxZi8CRygvElQzRTkqKyY3PCNUQnk6OzNhdUZHTD0uIIJoMJChgZhJRFRqS0VtNVKBry4/PE&#xA;1OT0ZXWFlaW1xdXl9WZ2hpamtsbW5vY3R1dnd4eXp7fH1+f3OEhYaHiImKi4yNjo+Ck5SVlpeYmZ&#xA;qbnJ2en5KjpKWmp6ipqqusra6voRAAICAQIDBQUEBQYECAMDbQEAAhEDBCESMUEFURNhIgZxgZEy&#xA;obHwFMHR4SNCFVJicvEzJDRDghaSUyWiY7LCB3PSNeJEgxdUkwgJChgZJjZFGidkdFU38qOzwygp&#xA;0+PzhJSktMTU5PRldYWVpbXF1eX1RlZmdoaWprbG1ub2R1dnd4eXp7fH1+f3OEhYaHiImKi4yNjo&#xA;+DlJWWl5iZmpucnZ6fkqOkpaanqKmqq6ytrq+v/aAAwDAQACEQMRAD8A4Fbfln5pu7G01Vgkem30&#xA;L3TalN6y28SqQP383plFLE7b74q+iv8AnETyzqflvzH5q0+/dGeWz0+5QxFyjI7zhWHNUr060xV9&#xA;OYq7FXYq7FXYq7FXYq7FXYq7FXYq7FXYq7FXYq7FXYq7FXYq7FXYq7FXYq7FXYq7FXYq7FXYq7FW&#xA;JN+Uf5YtGYj5Y070j1i+roEod6caUxVNdA8neVfLzzPoelWunPcqizvbxqjOsdeCsQKkLyNB74qn&#xA;GKuxV2KuxV2KuxV2KuxV2KuxV2KuxV2KuxV2KuxV2KuxV2KuxV2KuxV2KuxV2KuxV2KuxV2KuxV4&#xA;V/zkz+aZ8sjSvL9teyWdxeq95cywSXdvMI0YJEEmtXiajNz5LXsMVeXflz+fbaN5xtG1XVb26sZ3&#xA;+qXkV3c6necFkYAukVxNIgdWA341pUd8VfY2KuxV2KuxV2KuxV2KuxV2KuxV2KuxV2KuxV2KuxV2&#xA;KuxV2KuxV2KuxV2KuxV2KuxV2KuxV2KuxV8//wDORv5Eec/zD8yaXqugTWaw2tmbWdLqV42DCVpA&#xA;RxRwQQ/4YqwbV/8AnGj87PM3nIeYfMV7pBubm4jku54XZQqKw+zHHCgPFRtXc9z3xV9c4q7FXYq7&#xA;FXYq7FXYq7FXYq7FXYq7FXYq7FXYq7FXYq7FXYq7FXYq7FXYq7FXYq7FXYq7FXYq7FXYq7FXYq7F&#xA;XYq7FXYq7FXYq7FXYq7FXYq7FXYq7FXYq7FXYq7FXYq7FXYq7FXYq7FXYq7FXYq7FXYq7FXYq7FX&#xA;Yq7FXYq7FXYq7FXYq7FXYq7FXYq7FXYq7FXYq7FXYq7FXYq7FXYq7FXYq7FXYq7FXYq7FXYq7FXY&#xA;q7FXYq7FXYq7FXYq7FXYq7FXYq7FXYq7FXYq7FXYq7FXYq7FXYq7FXYq7FXYq7FXYq7FXYq7FXYq&#xA;7FXYq7FXYq7FXYq7FXYq7FXYq7FXYq7FXYq7FXYq7FXYq7FXYq7FXYq7FXYq7FXYq7FXYq7FXYq7&#xA;FXYq7FXYq7FXYq7FXYq7FXYq7FXYq7FXYq7FXYq7FXYq7FXYq7FXYq7FXYq7FXYq7FXYq7FXYq7F&#xA;XYq7FXYq7FXYq7FXYq7FXYq7FXYq7FXYq7FXYq7FXYq7FXYq7FXYq7FXYq7FXYq7FXYq7FXYq7FX&#xA;Yq7FXYq7FXYq7FXYq7FXYq7FXYq7FXYq7FXYq7FXYq7FXYq7FXYq7FXYq7FXYq7FXYq7FXYq7FXY&#xA;q7FXYq7FXYq7FXYq7FXYq7FXYq7FXYq7FXYq7FXYq7FXYq7FXYq7FXYq7FXYq7FXYq7FXYq7FXYq&#xA;7FXYq7FXYq7FXYq7FXYq7FXYq7FXYq7FXYq7FXYq7FXYq7FXYq7FXYq7FXYq7FXYq7FXYq7FXYq7&#xA;FXYq7FXYq7FXYq7FXYq7FXYq7FXYq7FXYq7FXYq7FXYq7FXYq7FXYq7FXYq7FXYq7FXYq7FXYq7F&#xA;XYq7FXYq7FXYq7FXYq7FXYq7FXj3/OQXnPX9Lj0ny/ok7Wc+rFzPco4ibiCqJGJSVCBmarNUdOtK&#xA;4q8utdR86/l1qOm6vHqBntblYZb20N1FMkhk5F42jSSQn4VNJKde+KvrLFXYq7FXYq7FXYq7FXYq&#xA;7FXYq7FXYq7FXYq7FXYq7FXYq7FXYq7FXYq7FXYq7FXYq7FXYq7FXYqwr80PyzsfPWlQwvP9U1Gy&#xA;LNZXXHko505o67VVuI6dKfQVWBeW/wDnHXUf0xZ3nmrVYbyy09Y0hs7ZW/eJEarG7sEonjsSfEYq&#xA;9yxV2KuxV2KuxV2KuxV2KuxV2KuxV2KuxV2KuxV2KuxV2KuxV2KuxV2KuxV2KuxV2KuxV2KuxV2K&#xA;uxV2KuxV2KuxV2KuxV2KuxV2KuxV2KuxV2KuxV2KuxV2KuxV2KuxV2KuxV2KuxV2KuxV2KuxV2Ku&#xA;xV2KuxV2KuxV2KuxV2KuxV2KuxV2KuxV2KuxV2KuxV2KuxV2KuxV2KuxV2KuxV2KuxV2KuxV2Kux&#xA;V2KuxV2KuxV2KuxV2KuxV2KuxV2KuxV2KuxV2KuxV2KuxV2KuxV2KuxV2KuxV2KuxV2KuxV2KuxV&#xA;2KuxV2KuxV2KuxV2KuxV2KuxV2KuxV2KuxV2KuxV2KuxV2KuxV2KuxV2KuxV2KuxV2KuxV2KuxV2&#xA;KuxV2KuxV2KuxV2KuxV2KuxV2KuxV2KuxV2KuxV2KuxV2KuxV2KuxV2KuxV2KuxV2KuxV2KuxV2K&#xA;uxV2KuxV2KuxV2KuxV2KuxV2KuxV2KuxV2KuxV2KuxV2KuxV2KuxV2KuxV2KuxV2KuxV2KuxV2Ku&#xA;xV2KuxV2KuxV2KuxV2KuxV2KuxV2KuxV2KuxV2KuxV2KuxV2KuxV2KuxV2KuxV2KuxV2KuxV2Kux&#xA;V2KuxV2KuxV2KuxV2KuxV2KuxV2KuxV2KuxV2KuxV2KuxV2KuxV2KuxV2KuxV2KuxV2KuxV2KuxV&#xA;2KuxV2KuxV2KuxV2KuxV2KuxV2KuxV2KuxV2KuxV2KuxV2KuxV2KuxV2KuxV2KuxV2KuxV2KuxV2&#xA;KuxV2KuxV2KuxV2KuxV2KuxV2KuxV2KuxV2KuxV2Kv8A/9k=</xmpGImg:image>
               </rdf:li>
            </rdf:Alt>
         </xmp:Thumbnails>
      </rdf:Description>
      <rdf:Description rdf:about=""
            xmlns:xmpMM="http://ns.adobe.com/xap/1.0/mm/"
            xmlns:stRef="http://ns.adobe.com/xap/1.0/sType/ResourceRef#"
            xmlns:stEvt="http://ns.adobe.com/xap/1.0/sType/ResourceEvent#">
         <xmpMM:RenditionClass>proof:pdf</xmpMM:RenditionClass>
         <xmpMM:OriginalDocumentID>uuid:65E6390686CF11DBA6E2D887CEACB407</xmpMM:OriginalDocumentID>
         <xmpMM:DocumentID>xmp.did:1EBCF01E6F08E611953CA788DBA20C78</xmpMM:DocumentID>
         <xmpMM:InstanceID>xmp.iid:1EBCF01E6F08E611953CA788DBA20C78</xmpMM:InstanceID>
         <xmpMM:DerivedFrom rdf:parseType="Resource">
            <stRef:instanceID>xmp.iid:1DBCF01E6F08E611953CA788DBA20C78</stRef:instanceID>
            <stRef:documentID>xmp.did:1DBCF01E6F08E611953CA788DBA20C78</stRef:documentID>
            <stRef:originalDocumentID>uuid:65E6390686CF11DBA6E2D887CEACB407</stRef:originalDocumentID>
            <stRef:renditionClass>proof:pdf</stRef:renditionClass>
         </xmpMM:DerivedFrom>
         <xmpMM:History>
            <rdf:Seq>
               <rdf:li rdf:parseType="Resource">
                  <stEvt:action>saved</stEvt:action>
                  <stEvt:instanceID>xmp.iid:15BCF01E6F08E611953CA788DBA20C78</stEvt:instanceID>
                  <stEvt:when>2016-04-22T15:16:43+05:30</stEvt:when>
                  <stEvt:softwareAgent>Adobe Illustrator CS5</stEvt:softwareAgent>
                  <stEvt:changed>/</stEvt:changed>
               </rdf:li>
               <rdf:li rdf:parseType="Resource">
                  <stEvt:action>saved</stEvt:action>
                  <stEvt:instanceID>xmp.iid:16BCF01E6F08E611953CA788DBA20C78</stEvt:instanceID>
                  <stEvt:when>2016-04-22T15:17:45+05:30</stEvt:when>
                  <stEvt:softwareAgent>Adobe Illustrator CS5</stEvt:softwareAgent>
                  <stEvt:changed>/</stEvt:changed>
               </rdf:li>
               <rdf:li rdf:parseType="Resource">
                  <stEvt:action>saved</stEvt:action>
                  <stEvt:instanceID>xmp.iid:17BCF01E6F08E611953CA788DBA20C78</stEvt:instanceID>
                  <stEvt:when>2016-04-22T15:26:51+05:30</stEvt:when>
                  <stEvt:softwareAgent>Adobe Illustrator CS5</stEvt:softwareAgent>
                  <stEvt:changed>/</stEvt:changed>
               </rdf:li>
               <rdf:li rdf:parseType="Resource">
                  <stEvt:action>saved</stEvt:action>
                  <stEvt:instanceID>xmp.iid:18BCF01E6F08E611953CA788DBA20C78</stEvt:instanceID>
                  <stEvt:when>2016-04-22T15:31+05:30</stEvt:when>
                  <stEvt:softwareAgent>Adobe Illustrator CS5</stEvt:softwareAgent>
                  <stEvt:changed>/</stEvt:changed>
               </rdf:li>
               <rdf:li rdf:parseType="Resource">
                  <stEvt:action>saved</stEvt:action>
                  <stEvt:instanceID>xmp.iid:19BCF01E6F08E611953CA788DBA20C78</stEvt:instanceID>
                  <stEvt:when>2016-04-22T15:31:18+05:30</stEvt:when>
                  <stEvt:softwareAgent>Adobe Illustrator CS5</stEvt:softwareAgent>
                  <stEvt:changed>/</stEvt:changed>
               </rdf:li>
               <rdf:li rdf:parseType="Resource">
                  <stEvt:action>saved</stEvt:action>
                  <stEvt:instanceID>xmp.iid:1ABCF01E6F08E611953CA788DBA20C78</stEvt:instanceID>
                  <stEvt:when>2016-04-22T15:32:08+05:30</stEvt:when>
                  <stEvt:softwareAgent>Adobe Illustrator CS5</stEvt:softwareAgent>
                  <stEvt:changed>/</stEvt:changed>
               </rdf:li>
               <rdf:li rdf:parseType="Resource">
                  <stEvt:action>saved</stEvt:action>
                  <stEvt:instanceID>xmp.iid:1BBCF01E6F08E611953CA788DBA20C78</stEvt:instanceID>
                  <stEvt:when>2016-04-22T15:33:22+05:30</stEvt:when>
                  <stEvt:softwareAgent>Adobe Illustrator CS5</stEvt:softwareAgent>
                  <stEvt:changed>/</stEvt:changed>
               </rdf:li>
               <rdf:li rdf:parseType="Resource">
                  <stEvt:action>saved</stEvt:action>
                  <stEvt:instanceID>xmp.iid:1CBCF01E6F08E611953CA788DBA20C78</stEvt:instanceID>
                  <stEvt:when>2016-04-22T15:33:40+05:30</stEvt:when>
                  <stEvt:softwareAgent>Adobe Illustrator CS5</stEvt:softwareAgent>
                  <stEvt:changed>/</stEvt:changed>
               </rdf:li>
               <rdf:li rdf:parseType="Resource">
                  <stEvt:action>saved</stEvt:action>
                  <stEvt:instanceID>xmp.iid:1DBCF01E6F08E611953CA788DBA20C78</stEvt:instanceID>
                  <stEvt:when>2016-04-22T15:34:20+05:30</stEvt:when>
                  <stEvt:softwareAgent>Adobe Illustrator CS5</stEvt:softwareAgent>
                  <stEvt:changed>/</stEvt:changed>
               </rdf:li>
               <rdf:li rdf:parseType="Resource">
                  <stEvt:action>saved</stEvt:action>
                  <stEvt:instanceID>xmp.iid:1EBCF01E6F08E611953CA788DBA20C78</stEvt:instanceID>
                  <stEvt:when>2016-04-22T15:34:40+05:30</stEvt:when>
                  <stEvt:softwareAgent>Adobe Illustrator CS5</stEvt:softwareAgent>
                  <stEvt:changed>/</stEvt:changed>
               </rdf:li>
            </rdf:Seq>
         </xmpMM:History>
      </rdf:Description>
      <rdf:Description rdf:about=""
            xmlns:illustrator="http://ns.adobe.com/illustrator/1.0/">
         <illustrator:StartupProfile>Web</illustrator:StartupProfile>
      </rdf:Description>
      <rdf:Description rdf:about=""
            xmlns:xmpTPg="http://ns.adobe.com/xap/1.0/t/pg/"
            xmlns:stDim="http://ns.adobe.com/xap/1.0/sType/Dimensions#"
            xmlns:xmpG="http://ns.adobe.com/xap/1.0/g/">
         <xmpTPg:NPages>1</xmpTPg:NPages>
         <xmpTPg:HasVisibleTransparency>False</xmpTPg:HasVisibleTransparency>
         <xmpTPg:HasVisibleOverprint>False</xmpTPg:HasVisibleOverprint>
         <xmpTPg:MaxPageSize rdf:parseType="Resource">
            <stDim:w>29.692871</stDim:w>
            <stDim:h>29.692871</stDim:h>
            <stDim:unit>Pixels</stDim:unit>
         </xmpTPg:MaxPageSize>
         <xmpTPg:PlateNames>
            <rdf:Seq>
               <rdf:li>Cyan</rdf:li>
               <rdf:li>Magenta</rdf:li>
               <rdf:li>Yellow</rdf:li>
               <rdf:li>Black</rdf:li>
            </rdf:Seq>
         </xmpTPg:PlateNames>
         <xmpTPg:SwatchGroups>
            <rdf:Seq>
               <rdf:li rdf:parseType="Resource">
                  <xmpG:groupName>Default Swatch Group</xmpG:groupName>
                  <xmpG:groupType>0</xmpG:groupType>
               </rdf:li>
            </rdf:Seq>
         </xmpTPg:SwatchGroups>
      </rdf:Description>
      <rdf:Description rdf:about=""
            xmlns:pdf="http://ns.adobe.com/pdf/1.3/">
         <pdf:Producer>Adobe PDF library 9.90</pdf:Producer>
      </rdf:Description>
   </rdf:RDF>
</x:xmpmeta>
                                                                                                    
                                                                                                    
                                                                                                    
                                                                                                    
                                                                                                    
                                                                                                    
                                                                                                    
                                                                                                    
                                                                                                    
                                                                                                    
                                                                                                    
                                                                                                    
                                                                                                    
                                                                                                    
                                                                                                    
                                                                                                    
                                                                                                    
                                                                                                    
                                                                                                    
                                                                                                    
                           
<?xpacket end="w"?>
	</metadata>
<path fill="#FFFFFF" d="M-502.486-240.828c-8.2,0-14.847,6.647-14.847,14.847c0,8.199,6.646,14.846,14.847,14.846
	c8.199,0,14.846-6.646,14.846-14.846C-487.64-234.181-494.287-240.828-502.486-240.828z M-504.292-219.653v-12.288l8.563,5.96
	L-504.292-219.653z"/>
<g>
	<path fill="#FFFFFF" d="M-171.293,92.196c0-1.203-0.976-2.179-2.179-2.179h-26.643c-1.203,0-2.179,0.976-2.179,2.179v15.644
		c0,1.202,0.976,2.179,2.179,2.179h26.643c1.203,0,2.179-0.977,2.179-2.179V92.196z M-190.908,105.469l0.06-10.304l8.502,5.104
		L-190.908,105.469z"/>
	<path fill="#FFFFFF" d="M-174.293,88.017v-1.464c0-0.603-0.165-1.536-0.767-1.536h-23.965c-0.602,0-1.268,0.935-1.268,1.536v1.464
		H-174.293z"/>
	<path fill="#FFFFFF" d="M-177.293,83.017v-1.911c0-0.602-0.252-1.089-0.854-1.089h-17.429c-0.602,0-1.718,0.488-1.718,1.089v1.911
		H-177.293z"/>
</g>
<path fill="#FFFFFF" d="M-172.293,122.196c0-1.203-0.976-2.179-2.179-2.179h-26.643c-1.203,0-2.179,0.976-2.179,2.179v19.644
	c0,1.202,0.976,2.179,2.179,2.179h26.643c1.203,0,2.179-0.977,2.179-2.179V122.196z M-200.293,134.017h6v3h-6V134.017z
	 M-185.293,142.017h-15v-3h15V142.017z M-175.293,142.017h-6v-3h6V142.017z M-175.293,137.017h-15v-3h15V137.017z"/>
<path fill="#FFFFFF" d="M-186.792,152.848c-8.2,0-14.847,6.646-14.847,14.848c0,8.199,6.647,14.846,14.847,14.846
	c8.199,0,14.846-6.646,14.846-14.846C-171.946,159.495-178.593,152.848-186.792,152.848z M-179.293,170.017h-6v6h-3v-6h-6v-3h6v-6h3
	v6h6V170.017z"/>
<polygon fill="#FFFFFF" points="-183.293,207.017 -172.293,207.017 -180.293,213.267 -177.793,224.517 -186.543,217.767 
	-196.793,224.517 -192.793,213.767 -201.543,207.017 -190.293,207.017 -186.959,195.183 "/>
<g>
	<path fill="#050505" d="M-542.293-194.971c0-1.11-0.901-2.012-2.012-2.012h-24.976c-1.111,0-2.012,0.901-2.012,2.012v13.977
		c0,1.11,0.901,2.012,2.012,2.012h24.976c1.111,0,2.012-0.901,2.012-2.012V-194.971z M-560.744-183.477l0.055-9.516l7.853,4.713
		L-560.744-183.477z"/>
	<path fill="#050505" d="M-545.293-200.946c0-0.557-0.259-1.037-0.814-1.037h-22.133c-0.556,0-1.053,0.48-1.053,1.037v1.963h24
		V-200.946z"/>
	<path fill="#050505" d="M-548.293-205.977c0-0.555-0.109-1.006-0.665-1.006h-16.096c-0.556,0-1.239,0.451-1.239,1.006v1.994h18
		V-205.977z"/>
</g>
<path d="M-550.293-245.949c0-1.123-0.911-2.034-2.034-2.034h-24.933c-1.123,0-2.034,0.911-2.034,2.034v17.933
	c0,1.123,0.911,2.034,2.034,2.034h24.933c1.123,0,2.034-0.911,2.034-2.034V-245.949z M-576.293-234.983h6v3h-6V-234.983z
	 M-563.293-227.983h-13v-3h13V-227.983z M-553.293-227.983h-6v-3h6V-227.983z M-553.293-231.983h-13v-3h13V-231.983z"/>
<path fill="#444444" d="M15.063,0.434c-8.08,0-14.629,6.549-14.629,14.63c0,8.08,6.55,14.629,14.629,14.629
	s14.629-6.549,14.629-14.629C29.693,6.983,23.143,0.434,15.063,0.434z M22.708,17.017h-6v6h-3v-6h-6v-3h6v-6h3v6h6V17.017z"/>
</svg>
