<?xml version="1.0" encoding="utf-8"?>
<!-- Generator: Adobe Illustrator 16.0.0, SVG Export Plug-In . SVG Version: 6.00 Build 0)  -->
<!DOCTYPE svg PUBLIC "-//W3C//DTD SVG 1.1//EN" "http://www.w3.org/Graphics/SVG/1.1/DTD/svg11.dtd">
<svg version="1.1" id="Layer_1" xmlns="http://www.w3.org/2000/svg" xmlns:xlink="http://www.w3.org/1999/xlink" x="0px" y="0px"
	 width="125.784px" height="51px" viewBox="0 0 125.784 51" enable-background="new 0 0 125.784 51" xml:space="preserve">
<g>
	<path fill="#FFFFFF" d="M7.778,22.417v-4.761h4.467v10.577c0,2.694-0.402,4.761-1.215,6.21c-0.813,1.444-2,2.161-3.546,2.161
		c-1.545,0-2.726-0.719-3.54-2.161c-0.816-1.45-1.22-3.527-1.22-6.21V10.896c0-2.694,0.408-4.771,1.22-6.214
		c0.814-1.442,1.99-2.169,3.54-2.169c1.547,0,2.728,0.727,3.546,2.169c0.813,1.45,1.215,3.52,1.215,6.214v3.236H9.223v-3.568
		c0-2.196-0.547-3.288-1.654-3.288c-1.104,0-1.656,1.088-1.656,3.288V28.56c0,2.166,0.552,3.248,1.656,3.248
		c1.106,0,1.654-1.082,1.654-3.248v-6.141L7.778,22.417L7.778,22.417z"/>
	<path fill="#FFFFFF" d="M24.237,36.234h-3.258c-0.193-0.956-0.285-2.314-0.285-4.096v-5.242c0-1.526-0.169-2.61-0.496-3.264
		c-0.33-0.648-0.863-0.981-1.601-0.981h-1.097V36.23h-3.192V2.889h4.818c1.645,0,2.841,0.628,3.598,1.886
		c0.754,1.256,1.132,3.182,1.132,5.787v2.614c0,3.398-0.695,5.636-2.088,6.718v0.095c1.416,0.988,2.123,3.339,2.123,7.054v5.144
		C23.892,33.998,24.007,35.345,24.237,36.234z M19.036,7.657h-1.535v10.241h1.245c0.642,0,1.116-0.277,1.435-0.813
		c0.326-0.545,0.481-1.441,0.481-2.717v-3.29C20.662,8.8,20.119,7.657,19.036,7.657z"/>
	<path fill="#FFFFFF" d="M25.717,28.234V10.896c0-2.665,0.418-4.73,1.246-6.2c0.836-1.457,2.033-2.184,3.599-2.184
		c1.57,0,2.771,0.727,3.597,2.184c0.836,1.464,1.25,3.523,1.25,6.2v17.338c0,2.664-0.413,4.729-1.25,6.201
		c-0.825,1.454-2.026,2.177-3.597,2.177c-1.565,0-2.763-0.723-3.599-2.181C26.129,32.964,25.717,30.898,25.717,28.234z
		 M28.907,10.564V28.56c0,2.197,0.555,3.292,1.656,3.292c1.104,0,1.656-1.096,1.656-3.292V10.564c0-2.196-0.548-3.288-1.656-3.288
		C29.46,7.275,28.907,8.365,28.907,10.564z"/>
	<path fill="#FFFFFF" d="M37.33,2.896h3.189v25.716c0,2.161,0.553,3.24,1.657,3.24c1.101,0,1.655-1.078,1.655-3.24V2.896h3.017
		v25.391c0,2.7-0.405,4.765-1.218,6.215c-0.815,1.438-1.997,2.162-3.548,2.162c-1.547,0-2.726-0.725-3.538-2.162
		c-0.815-1.45-1.219-3.521-1.219-6.215V2.896H37.33z"/>
	<path fill="#FFFFFF" d="M55.848,36.234l-3.92-24.148h-0.061v24.148h-2.868V2.896h4.007l3.223,19.949h0.057V2.896h2.849v33.338
		H55.848L55.848,36.234z"/>
	<path fill="#FFFFFF" d="M61.42,36.234V2.896h5.05c3.175,0,4.763,2.744,4.763,8.24v16.86c0,5.499-1.588,8.238-4.763,8.238H61.42
		L61.42,36.234z M66.414,7.657h-1.803v23.812h1.803c1.09,0,1.627-1.077,1.627-3.234V10.896C68.041,8.731,67.504,7.657,66.414,7.657z
		"/>
	<path fill="#FFFFFF" d="M81.51,36.234L80.383,18.47h-0.062l-1.134,17.764H74.81L72.531,2.896h3.115l1.684,26.288h0.057
		l1.509-26.288h3.079l1.57,26.479h0.06l1.621-26.479h2.786l-2.273,33.339H81.51z"/>
	<path fill="#FFFFFF" d="M89.464,2.896h3.192v25.716c0,2.161,0.547,3.24,1.655,3.24c1.102,0,1.643-1.078,1.643-3.24V2.896h3.033
		v25.391c0,2.7-0.422,4.765-1.215,6.215c-0.823,1.438-2.005,2.162-3.55,2.162c-1.543,0-2.721-0.725-3.545-2.162
		c-0.818-1.45-1.224-3.521-1.224-6.215V2.896H89.464z"/>
	<path fill="#FFFFFF" d="M111.092,36.234h-3.249c-0.194-0.956-0.29-2.314-0.29-4.096v-5.242c0-1.526-0.163-2.61-0.492-3.264
		c-0.332-0.648-0.86-0.981-1.603-0.981h-1.1V36.23h-3.202V2.889h4.821c1.641,0,2.845,0.628,3.607,1.886
		c0.759,1.256,1.126,3.182,1.126,5.787v2.614c0,3.398-0.703,5.636-2.094,6.718v0.095c1.421,0.988,2.124,3.339,2.124,7.054v5.144
		C110.743,33.998,110.858,35.345,111.092,36.234z M105.902,7.657h-1.538v10.241h1.248c0.631,0,1.114-0.277,1.423-0.813
		c0.33-0.545,0.49-1.441,0.49-2.717v-3.29C107.527,8.8,106.979,7.657,105.902,7.657z"/>
	<path fill="#FFFFFF" d="M120.121,36.234l-3.107-13.286l-0.985,3.046v10.24h-3.188V2.896h3.188v14.43h0.064l4.124-14.43h3.19
		l-4.443,14.858l4.443,18.486h-3.286V36.234z"/>
</g>
<g>
	<path fill="#FFFFFF" d="M34.356,44.665c0-0.631,0.156-1.123,0.484-1.467c0.323-0.34,0.793-0.514,1.425-0.514
		c0.625,0,1.096,0.174,1.42,0.514c0.327,0.344,0.48,0.836,0.48,1.467v0.248h-1.216v-0.329c0-0.526-0.214-0.773-0.648-0.773
		c-0.435,0-0.647,0.251-0.647,0.773c0,0.294,0.079,0.561,0.239,0.806c0.159,0.249,0.45,0.547,0.868,0.896
		c0.533,0.451,0.907,0.861,1.113,1.232c0.208,0.363,0.313,0.77,0.313,1.229c0,0.631-0.161,1.119-0.488,1.469
		c-0.331,0.326-0.813,0.5-1.437,0.5c-0.629,0-1.106-0.161-1.442-0.5c-0.333-0.35-0.494-0.825-0.494-1.459V48.28h1.222v0.555
		c0,0.503,0.22,0.76,0.669,0.76s0.668-0.255,0.668-0.76c0-0.302-0.076-0.555-0.239-0.813c-0.161-0.251-0.449-0.552-0.868-0.893
		c-0.534-0.456-0.899-0.86-1.113-1.219C34.459,45.531,34.356,45.125,34.356,44.665z"/>
	<path fill="#FFFFFF" d="M42.556,43.901v-1.12h4.004v1.12h-1.353v6.738h-1.296v-6.738H42.556z"/>
	<path fill="#FFFFFF" d="M51.069,42.781h1.293v6.058c0,0.51,0.219,0.765,0.671,0.765c0.447,0,0.67-0.255,0.67-0.765v-6.058h1.221
		v5.985c0,0.631-0.164,1.122-0.491,1.471c-0.332,0.331-0.812,0.5-1.444,0.5c-0.628,0-1.101-0.163-1.437-0.5
		c-0.329-0.349-0.491-0.84-0.491-1.471v-5.985H51.069z"/>
	<path fill="#FFFFFF" d="M59.817,50.64v-7.858h2.05c1.286,0,1.936,0.644,1.936,1.941v3.972c0,1.304-0.648,1.945-1.936,1.945H59.817z
		 M61.841,43.901h-0.727v5.613h0.727c0.439,0,0.66-0.254,0.66-0.759v-4.093C62.501,44.149,62.28,43.901,61.841,43.901z"/>
	<path fill="#FFFFFF" d="M68.625,50.64v-7.858h1.3v7.858H68.625z"/>
	<path fill="#FFFFFF" d="M74.764,48.756v-4.091c0-0.624,0.164-1.113,0.504-1.452c0.337-0.343,0.82-0.517,1.457-0.517
		c0.635,0,1.129,0.174,1.46,0.517c0.337,0.337,0.502,0.828,0.502,1.452v4.091c0,0.623-0.165,1.111-0.502,1.455
		c-0.331,0.347-0.825,0.517-1.46,0.517c-0.637,0-1.119-0.162-1.457-0.517C74.928,49.865,74.764,49.377,74.764,48.756z
		 M76.059,44.592v4.246c0,0.515,0.227,0.765,0.666,0.765c0.453,0,0.675-0.255,0.675-0.765v-4.246c0-0.532-0.222-0.776-0.675-0.776
		C76.285,43.811,76.059,44.062,76.059,44.592z"/>
	<path fill="#FFFFFF" d="M83.363,44.665c0-0.631,0.161-1.123,0.484-1.467c0.328-0.34,0.797-0.514,1.423-0.514
		c0.633,0,1.1,0.174,1.418,0.514c0.324,0.344,0.489,0.836,0.489,1.467v0.248h-1.226v-0.329c0-0.526-0.227-0.773-0.643-0.773
		c-0.438,0-0.653,0.251-0.653,0.773c0,0.294,0.075,0.561,0.245,0.806c0.151,0.249,0.455,0.547,0.857,0.896
		c0.544,0.451,0.909,0.861,1.122,1.232c0.204,0.363,0.31,0.77,0.31,1.229c0,0.631-0.155,1.119-0.499,1.469
		c-0.335,0.326-0.802,0.5-1.421,0.5c-0.632,0-1.125-0.161-1.45-0.5c-0.327-0.35-0.494-0.838-0.494-1.469v-0.479h1.227v0.555
		c0,0.506,0.223,0.763,0.673,0.763c0.449,0,0.677-0.257,0.677-0.763c0-0.3-0.089-0.555-0.247-0.809
		c-0.164-0.249-0.442-0.551-0.866-0.894c-0.529-0.455-0.899-0.864-1.113-1.221C83.469,45.531,83.363,45.125,83.363,44.665z"/>
</g>
<g>
	<rect x="0.728" fill="#FFFFFF" width="125.057" height="1.386"/>
</g>
<g>
	<rect x="0.728" y="38.043" fill="#FFFFFF" width="125.057" height="1.387"/>
</g>
</svg>
