<?xml version="1.0" encoding="utf-8"?>
<!-- Generator: Adobe Illustrator 15.0.0, SVG Export Plug-In . SVG Version: 6.00 Build 0)  -->
<!DOCTYPE svg PUBLIC "-//W3C//DTD SVG 1.1//EN" "http://www.w3.org/Graphics/SVG/1.1/DTD/svg11.dtd">
<svg version="1.1" id="Layer_1" xmlns="http://www.w3.org/2000/svg" xmlns:xlink="http://www.w3.org/1999/xlink" x="0px" y="0px"
	 width="512px" height="512px" viewBox="0 0 512 512" enable-background="new 0 0 512 512" xml:space="preserve">
<path fill="#3D3D3D" d="M-701.993,417.727h-30c0.008,42.197,34.196,76.384,76.39,76.4v-30.012
	C-681.213,464.074-701.949,443.338-701.993,417.727 M-701.994,253.278H-732v61.39h30.005L-701.994,253.278L-701.994,253.278z
	 M-731.999,150.1h30.013c0.041-25.625,20.773-46.359,46.386-46.4v-30C-697.8,73.705-731.992,107.894-731.999,150.1
	 M-701.994,335.135h-30.002v61.396h30.002V335.135z M-701.986,173.116h-30.013v61.396h30.013V173.116z M-309.745,200.239
	c-8.987,11.237-17.864,22.665-26.614,34.273h26.614V200.239z M-410.025,99.313V73.698h-61.387V103.7h56.289
	C-413.43,102.24-411.736,100.779-410.025,99.313 M-633.423,495.098h61.399V465.09h-61.399V495.098z M-339.741,396.528h29.998
	v-61.396h-29.998V396.528z M-386.99,464.11v30.017c42.205-0.014,76.381-34.203,76.391-76.4h-30
	C-340.654,443.351-361.373,464.066-386.99,464.11 M-339.746,314.669h30.003v-61.39h-30.003V314.669z M-633.422,103.7h61.398V73.698
	h-61.398V103.7z M-551.574,103.7h61.395V73.698h-61.395V103.7z M-551.571,495.098h61.387V465.09h-61.387V495.098L-551.571,495.098z
	 M-471.42,495.098h61.398V465.09h-61.398V495.098z M-231.913,16.902c-140.703,86.27-242.797,195.113-288.674,249.728
	l-112.341-88.017l-49.613,39.993l194.125,197.423C-455.01,330.456-349.197,163.203-220,44.369L-231.913,16.902z"/>
<polyline fill="#3D3D3D" points="0,512 140,255.591 0,0 512,256 "/>
</svg>
